[
    {
        "id": 1,
        "date": 1336333636,
        "parent": null
    },
    {
        "id": 2,
        "date": 1555334995,
        "parent": 1
    },
    {
        "id": 3,
        "date": 8487474477,
        "parent": 2
    }
]
